{
	"id":"001",
	"author":"Александр Пушкин",
	"name":"Сказки",
	"description":"Всеми любимые с детства сказки. Чего только стоит, например, сказка о рыбаке и рыбке...\n\nЖил старик со своею старухой\nУ самого синего моря;\nОни жили в ветхой землянке\nРовно тридцать лет и три года.\nСтарик ловил неводом рыбу,\nСтаруха пряла свою пряжу.\nРаз он в море закинул невод, -\nПришел невод с одною тиной.\nОн в другой раз закинул невод, -\nПришел невод с травой морскою.\nВ третий раз закинул он невод,\nПришел невод с одною рыбкой,\nС непростою рыбкой, - золотою.\nКак взмолится золотая рыбка!\nГолосом молвит человечьим:\n\"Отпусти ты, старче, меня в море!\nДорогой за себя дам откуп:\nОткуплюсь чем только пожелаешь.\"\nУдивился старик, испугался:\nОн рыбачил тридцать лет и три года.\nИ не слыхивал, чтоб рыба говорила.\nОтпустил он рыбку золотую\nИ сказал ей ласковое слово:\n\"Бог с тобою, золотая рыбка!\nТвоего мне откупа не надо;\nСтупай себе в синее море,\nГуляй там себе на просторе.\"\n\nВоротился старик ко старухе,\nРассказал ей великое чудо.\n\"Я сегодня поймал было рыбку,\nЗолотую рыбку, непростую;\nПо нашему говорила рыбка,\nДомой в море синее просилась,\nДорогою ценою откупалась:\nОткупалась чем только пожелаю.\nНе посмел я взять с нее выкуп;\nТак пустил ее в синее море.\"\nСтарика старуха забранила:\n\"Дурачина ты, простофиля!\nНе умел ты взять выкупа с рыбки!\nХоть бы взял ты с нее корыто,\nНаше-то совсем раскололось\".\n\nВот пошел он к синему морю;\nВидит, - море слегка разыгралось.\nСтал он кликать золотую рыбку,\nПриплыла к нему рыбка и спросил\n\"Чего тебе надобно, старче?\"\nЕй с поклоном старик отвечает:\n\"Смилуйся, государыня рыбка,\nРазбранила меня моя старуха,\nНе дает старику мне покою:\nНадобно ей новое корыто;\nНаше-то совсем раскололось.\"\nОтвечает золотая рыбка:\n\"Не печалься, ступай себе с богом\nБудет вам новое корыто.\"\n\nВоротился старик ко старухе,\nУ старухи новое корыто.\nЕще пуще старуха бранится,\n\"Дурачина ты, простофиля!\nВыпросил, дурачина, корыто!\nВ корыте много ль корысти?\nВоротись, дурачина, ты к рыбке;\nПоклонись ей, выпроси уж избу.\"\n\nВот пошел он к синему морю,\n(Помутилося синее море).\nСтал он кликать золотую рыбку,\nПриплыла к нему рыбка, спросила:\n\"Чего тебе надобно, старче?\"\nЕй старик с поклоном отвечает:\n\"Смилуйся, государыня рыбка!\nЕще пуще старуха бранится,\nНе дает старику мне покою:\nИзбу просит сварливая баба.\"\nОтвечает золотая рыбка:\n\"Не печалься, ступай себе с богом,\nТак и быть: изба вам уж будет.\"\nПошел он ко своей землянке,\nА землянки нет уж и следа;\nПеред ним изба со светелкой,\nС кирпичною, беленою трубою,\nС дубовыми, тесовыми вороты.\nСтаруха сидит под окошком,\nНа чем свет стоит - мужа ругает.\n\"Дурачина ты, прямой простофиля!\nВыпросил, простофиля, избу!\nВоротись, поклонися рыбке:\nНе хочу быть черной крестьянкой,\nХочу быть столбовою дворянкой.\"\n\nПошел старик к синему морю;\n(Не спокойно синее море).\nСтал он кликать золотую рыбку.\nПриплыла к нему рыбка, спросила:\n\"Чего тебе надобно, старче?\"\nЕй с поклоном старик отвечает:\n\"Смилуйся, государыня рыбка!\nПуще прежнего старуха вздурилась,\nНе дает старику мне покою:\nУж не хочет быть она крестьянкой,\nХочет быть столбовою дворянкой.\"\nОтвечает золотая рыбка:\n\"Не печалься, ступай себе с богом.\"\n\nВоротился старик ко старухе.\nЧто ж он видит? Высокий терем.\nНа крыльце стоит его старуха\nВ дорогой собольей душегрейке,\nПарчевая на маковке кичка,\nЖемчуги огрузили шею,\nНа руках золотые перстни,\nНа ногах красные сапожки.\nПеред нею усердные слуги;\nОна бьет их, за чупрун таскает.\nГоворит старик своей старухе:\n\"Здравствуй, барыня сударыня дворянка!\nЧай, теперь твоя душенька довольна.\"\nНа него прикрикнула старуха,\nНа конюшне служить его послала.\n\nВот неделя, другая проходит,\nЕще пуще старуха вздурилась;\nОпять к рыбке старика посылает.\n\"Воротись, поклонися рыбке:\nНе хочу быть столбовою дворянкой,\nА хочу быть вольною царицей.\"\nИспугался старик, взмолился:\n\"Что ты, баба, белены объелась?\nНи ступить, ни молвить не умеешь!\nНасмешишь ты целое царство.\"\nОсердилася пуще старуха,\nПо щеке ударила мужа.\n\"Как ты смеешь, мужик, спорить со мною,\nСо мною, дворянкой столбовою? -\nСтупай к морю, говорят тебе честью;\nНе пойдешь, поведут по неволе.\"\n\nСтаричок отправился к морю,\n(Почернело синее море).\nСтал он кликать золотую рыбку.\nПриплыла к нему рыбка, спросила:\n\"Чего тебе надобно, старче?\"\nЕй с поклоном старик отвечает:\n\"Смилуйся, государыня рыбка!\nОпять моя старуха бунтует:\nУж не хочет быть она дворянкой,\nХочет быть вольною царицей.\"\nОтвечает золотая рыбка:\n\"Не печалься, ступай себе с богом!\nДобро! будет старуха царицей!\"\n\nСтаричок к старухе воротился,\nЧто ж? пред ним царские палаты,\nВ палатах видит свою старуху,\nЗа столом сидит она царицей,\nСлужат ей бояре да дворяне,\nНаливают ей заморские вины;\nЗаедает она пряником печатным;\nВкруг ее стоит грозная стража,\nНа плечах топорики держат.\nКак увидел старик, - испугался!\nВ ноги он старухе поклонился,\nМолвил: \"Здравствуй, грозная царица!\nНу теперь твоя душенька довольна.\"\nНа него старуха не взглянула,\nЛишь с очей прогнать его велела.\nПодбежали бояре и дворяне,\nСтарика в-зашеи затолкали.\nА в дверях-то стража подбежала,\nТопорами чуть не изрубила.\nА народ-то над ним насмеялся:\n\"По делом тебе, старый невежа!\nВпредь тебе, невежа, наука:\nНе садися не в свои сани!\"\n\nВот неделя, другая проходит,\nЕще пуще старуха вздурилась.\nЦаредворцев за мужем посылает,\nОтыскали старика, привели к ней.\nГоворит старику старуха:\n\"Воротись, поклонися рыбке.\nНе хочу быть вольною царицей,\nХочу быть владычицей морскою,\nЧтобы жить мне в Окияне море,\nЧтоб служила мне рыбка золотая\nИ была б у меня на посылках.\"\n\nСтарик не осмелился перечить,\nНе дерзнул поперек слова молвить.\nВот идет он к синему морю,\nВидит, на море черная буря:\nТак и вздулись сердитые волны,\nТак и ходят, так воем и воют.\nСтал он кликать золотую рыбку,\nПриплыла к нему рыбка, спросила:\n\"Чего тебе надобно, старче?\"\nЕй старик с поклоном отвечает:\n\"Смилуйся, государыня рыбка!\nЧто мне делать с проклятою бабой?\nУж не хочет быть она царицей,\nХочет быть владычицей морскою;\nЧтобы жить ей в Окияне море,\nЧтобы ты сама ей служила\nИ была бы у ней на посылках.\" -\nНичего не сказала рыбка,\nЛишь хвостом по воде плеснула\nИ ушла в глубокое море.\nДолго у моря ждал он ответа,\nНе дождался, к старухе воротился -\nГлядь: опять перед ним землянка;\nНа пороге сидит его старуха,\nА пред нею разбитое корыто."
}
